{"count":1197,"page":1,"page_count":24,"page_size":24,"products":[{"product_name":"Coca-cola","ecoscore_grade":"c","nutriscore_grade":"e","code":"5449000214911","image_front_url":"https://images.openfoodfacts.org/images/products/544/900/021/4911/front_en.119.400.jpg"},{"product_name":"Coca Cola Zero","ecoscore_grade":"not-applicable","nutriscore_grade":"b","code":"5449000214799","image_front_url":"https://images.openfoodfacts.org/images/products/544/900/021/4799/front_en.163.400.jpg"},{"product_name":"Coca Cola Zero","ecoscore_grade":"not-applicable","nutriscore_grade":"b","code":"5449000131805","image_front_url":"https://images.openfoodfacts.org/images/products/544/900/013/1805/front_en.561.400.jpg"},{"product_name":"Coca cola 1 litre","ecoscore_grade":"not-applicable","nutriscore_grade":"e","code":"5449000054227","image_front_url":"https://images.openfoodfacts.org/images/products/544/900/005/4227/front_en.259.400.jpg"},{"product_name":"Coca cola 1,5 litre","ecoscore_grade":"not-applicable","nutriscore_grade":"e","code":"5449000000439","image_front_url":"https://images.openfoodfacts.org/images/products/544/900/000/0439/front_en.271.400.jpg"},{"product_name":"Coca Cola Zero","ecoscore_grade":"not-applicable","nutriscore_grade":"b","code":"5449000131836","image_front_url":"https://images.openfoodfacts.org/images/products/544/900/013/1836/front_en.134.400.jpg"},{"product_name":"Coca cola 1 litre zero","ecoscore_grade":"not-applicable","nutriscore_grade":"b","code":"5449000133328","image_front_url":"https://images.openfoodfacts.org/images/products/544/900/013/3328/front_en.185.400.jpg"},{"product_name":"Coca Cola","ecoscore_grade":"not-applicable","nutriscore_grade":"e","code":"5449000000286","image_front_url":"https://images.openfoodfacts.org/images/products/544/900/000/0286/front_en.77.400.jpg"},{"product_name":"Coca Cola gout original","ecoscore_grade":"not-applicable","nutriscore_grade":"d","code":"5449000267412","image_front_url":"https://images.openfoodfacts.org/images/products/544/900/026/7412/front_en.94.400.jpg"},{"product_name":"Coca Cola","ecoscore_grade":"not-applicable","nutriscore_grade":"e","code":"5449000130389","image_front_url":"https://images.openfoodfacts.org/images/products/544/900/013/0389/front_en.94.400.jpg"},{"product_name":"Coca-Cola Classic","ecoscore_grade":"not-applicable","nutriscore_grade":"e","code":"5000112546415","image_front_url":"https://images.openfoodfacts.org/images/products/500/011/254/6415/front_en.56.400.jpg"},{"product_name":"Coke Can 150ml","ecoscore_grade":"not-applicable","nutriscore_grade":"e","code":"54491014","image_front_url":"https://images.openfoodfacts.org/images/products/54491014/front_en.10.400.jpg"},{"product_name":"Coca Cola","ecoscore_grade":"not-applicable","nutriscore_grade":"e","code":"5449000008046","image_front_url":"https://images.openfoodfacts.org/images/products/544/900/000/8046/front_en.69.400.jpg"},{"product_name":"Coca-Cola goût original","ecoscore_grade":"not-applicable","nutriscore_grade":"e","code":"3174780000363","image_front_url":"https://images.openfoodfacts.org/images/products/317/478/000/0363/front_fr.132.400.jpg"},{"product_name":"Coca Cola","ecoscore_grade":"not-applicable","nutriscore_grade":"e","code":"5449000051981","image_front_url":"https://images.openfoodfacts.org/images/products/544/900/005/1981/front_en.49.400.jpg"},{"product_name":"Coca-Cola","ecoscore_grade":"not-applicable","nutriscore_grade":"e","code":"5000112545326","image_front_url":"https://images.openfoodfacts.org/images/products/500/011/254/5326/front_en.6.400.jpg"},{"product_name":"Cappy PULPY","ecoscore_grade":"c","nutriscore_grade":"d","code":"5449000147417","image_front_url":"https://images.openfoodfacts.org/images/products/544/900/014/7417/front_fr.55.400.jpg"},{"product_name":"Coca cola zero sugar","ecoscore_grade":"not-applicable","nutriscore_grade":"b","code":"5000112638745","image_front_url":"https://images.openfoodfacts.org/images/products/500/011/263/8745/front_fr.4.400.jpg"},{"product_name":"","ecoscore_grade":"not-applicable","nutriscore_grade":"e","code":"5449000025173","image_front_url":"https://images.openfoodfacts.org/images/products/544/900/002/5173/front.5.400.jpg"},{"product_name":"Sprite","ecoscore_grade":"not-applicable","nutriscore_grade":"","code":"8901764032271","image_front_url":"https://images.openfoodfacts.org/images/products/890/176/403/2271/front_en.50.400.jpg"},{"product_name":"Coca cola light","ecoscore_grade":"not-applicable","nutriscore_grade":"b","code":"5449000214812","image_front_url":"https://images.openfoodfacts.org/images/products/544/900/021/4812/front_fr.31.400.jpg"},{"product_name":"Coca Cola","ecoscore_grade":"not-applicable","nutriscore_grade":"e","code":"5000112557664","image_front_url":"https://images.openfoodfacts.org/images/products/500/011/255/7664/front_it.19.400.jpg"},{"product_name":"Coca Cola","ecoscore_grade":"not-applicable","nutriscore_grade":"e","code":"42105220","image_front_url":"https://images.openfoodfacts.org/images/products/42105220/front_de.16.400.jpg"},{"product_name":"Coca Cola light","ecoscore_grade":"not-applicable","nutriscore_grade":"b","code":"5000112546439","image_front_url":"https://images.openfoodfacts.org/images/products/500/011/254/6439/front_de.20.400.jpg"}]}